{
    "projectName": "Bias",
    "external": false,
    "root_folder": "/bias/",
    "www_folder": "www",
    "switch_lang_by_query": false,
    "cdn": "https://amazon.ca",
    "mobile_only": true,
    "share": {
        "en": {
            "title": "Bias",
            "description": "How open-minded are you really? Find out how your biases influence your decisions. A 60 second experience by Nicolas S. Roy, Catherine D’Amours and Rebecca West. Produced by the NFB and ARTE, co-commissioned by IDFA DocLab.",
            "tweet": "How open-minded are you really? Find out how your biases influence your decisions. A 60 second experience by @nsroy @damours_c & @rwe5t. Produced by @thenfb & @ARTEfr in collaboration with @DocLab.",
            "image": "/images/fb_img.png",
            "video_url": "Video URL EN",
            "video_secure_url": "video secure URL EN",
            "video_type": "text/html",
            "video_width": "200",
            "video_height": "100"
        },
        "fr": {
            "title": "À priori",
            "description": "Nous aimons nous croire ouverts d’esprit et exempts de préjugés. Mais le sommes-nous vraiment? Découvrez en 60 secondes comment vos préjugés influencent vos décisions.",
            "tweet": "Sommes-nous vraiment ouverts d’esprit? Découvrez en 60 secondes comment vos préjugés influencent vos décisions. Un projet de @nsroy @damours_c & @rwe5t. Produit par @ONF & @ARTEfr en collaboration avec @DocLab.",
            "image": "/images/fb_img.png",
            "video_url": "Video URL FR",
            "video_secure_url": "video secure URL FR",
            "video_type": "text/html",
            "video_width": "200",
            "video_height": "100"
        },
        "de": {
            "title": "Vorurteile",
            "description": "Wir alle halten uns für weltoffen und unvoreingenommen. Aber sind wir das wirklich? Finden Sie heraus, wie Vorurteile Ihre Entscheidungen beeinflussen. Ein Erlebnis in 60 Sekunden von Nicolas S. Roy, Rebecca West und Catherine D’Amours. Produziert von NFB und ARTE, in Zusammenarbeit mit IDFA DocLab.",
            "tweet": "Wie weltoffen sind Sie wirklich? Finden Sie heraus, wie Vorurteile Ihre Entscheidungen beeinflussen. Ein Erlebnis in 60 Sekunden von @nsroy @rwe5t & @damours_c. Produziert von @thenfb & @ARTEfr in Zusammenarbeit mit @DocLab.",
            "image": "/images/fb_img.png",
            "video_url": "Video URL DE",
            "video_secure_url": "video secure URL DE",
            "video_type": "text/html",
            "video_width": "200",
            "video_height": "100"
        }
    },
    "analytics": {
        "name": "biasdpt",
        "id": "UA-80701183-6"
    }
} 
